[gd_scene load_steps=17 format=2]

[ext_resource path="res://Scripts/Start.gd" type="Script" id=1]
[ext_resource path="res://assets/parallax_mountain_pack/layers/parallax-mountain-bg.png" type="Texture" id=2]
[ext_resource path="res://Map/incaAll.tres" type="TileSet" id=3]
[ext_resource path="res://Scene/Player.tscn" type="PackedScene" id=4]
[ext_resource path="res://assets/spikes.png" type="Texture" id=5]
[ext_resource path="res://Scripts/spikes.gd" type="Script" id=6]
[ext_resource path="res://Scripts/Moving.gd" type="Script" id=7]
[ext_resource path="res://assets/tileset/moving platform black.png" type="Texture" id=8]
[ext_resource path="res://Scripts/stage2trigg.gd" type="Script" id=9]
[ext_resource path="res://DynamicFonts/AP7_72.tres" type="DynamicFont" id=10]
[ext_resource path="res://Scene/Life Counter.tscn" type="PackedScene" id=11]
[ext_resource path="res://assets/Audio/Music/pokemon abandoned site theme.wav" type="AudioStream" id=12]

[sub_resource type="CapsuleShape2D" id=1]
radius = 36.7527
height = 63.537

[sub_resource type="RectangleShape2D" id=2]
extents = Vector2( 48.1328, 15.4125 )

[sub_resource type="RectangleShape2D" id=3]
extents = Vector2( 33.1728, 14.2285 )

[sub_resource type="RectangleShape2D" id=4]
extents = Vector2( 615.01, 54.4288 )

[node name="Node2D" type="Node2D"]
script = ExtResource( 1 )

[node name="parallax-mountain-bg" type="Sprite" parent="."]
position = Vector2( 1739.31, 980.347 )
scale = Vector2( 21.3729, 21.5609 )
texture = ExtResource( 2 )

[node name="TileMap" type="TileMap" parent="."]
tile_set = ExtResource( 3 )
cell_size = Vector2( 32, 32 )
format = 1
tile_data = PoolIntArray( -327695, 82, 0, -327694, 82, 0, -327691, 82, 0, -327688, 82, 0, -327685, 82, 0, -327682, 82, 0, -262062, 83, 0, -262061, 83, 0, -262060, 83, 0, -262059, 83, 0, -262055, 83, 0, -262051, 83, 0, -262047, 83, 0, -262043, 83, 0, -131087, 82, 0, -131086, 82, 0, -131083, 82, 0, -131080, 82, 0, -131077, 82, 0, -131074, 82, 0, 65521, 82, 0, 65524, 82, 0, 65527, 82, 0, 65530, 82, 0, 65533, 4, 0, 65534, 18, 0, 65535, 17, 0, 0, 0, 0, 101, 83, 0, 131069, 4, 0, 131070, 18, 0, 131071, 17, 0, 65536, 0, 0, 196605, 4, 0, 196606, 18, 0, 196607, 17, 0, 131072, 0, 0, 262129, 82, 0, 262138, 82, 0, 262141, 4, 0, 262142, 18, 0, 262143, 17, 0, 196608, 0, 0, 327677, 4, 0, 327678, 18, 0, 327679, 17, 0, 262144, 0, 0, 262245, 83, 0, 393213, 4, 0, 393214, 18, 0, 393215, 17, 0, 327680, 0, 0, 327759, 82, 0, 458737, 82, 0, 458746, 82, 0, 458749, 4, 0, 458750, 18, 0, 458751, 17, 0, 393216, 0, 0, 524285, 4, 0, 524286, 18, 0, 524287, 17, 0, 458752, 0, 0, 589821, 4, 0, 589822, 18, 0, 589823, 17, 0, 524288, 0, 0, 524364, 82, 0, 524367, 82, 0, 524389, 83, 0, 655345, 82, 0, 655354, 82, 0, 655357, 4, 0, 655358, 18, 0, 655359, 17, 0, 589824, 0, 0, 720893, 4, 0, 720894, 18, 0, 720895, 17, 0, 655360, 0, 0, 786429, 4, 0, 786430, 18, 0, 786431, 17, 0, 720896, 0, 0, 720969, 82, 0, 720972, 82, 0, 720975, 82, 0, 851953, 82, 0, 851962, 82, 0, 851965, 4, 0, 851966, 18, 0, 851967, 17, 0, 786432, 0, 0, 786533, 83, 0, 917501, 4, 0, 917502, 18, 0, 917503, 17, 0, 851968, 0, 0, 983037, 4, 0, 983038, 18, 0, 983039, 17, 0, 917504, 0, 0, 917574, 82, 0, 917577, 82, 0, 917580, 82, 0, 917583, 82, 0, 1048561, 82, 0, 1048570, 82, 0, 1048573, 4, 0, 1048574, 18, 0, 1048575, 17, 0, 983040, 0, 0, 1114109, 4, 0, 1114110, 18, 0, 1114111, 17, 0, 1048576, 0, 0, 1048677, 83, 0, 1179645, 4, 0, 1179646, 18, 0, 1179647, 17, 0, 1114112, 0, 0, 1114113, 0, 0, 1114114, 0, 0, 1114115, 0, 0, 1114116, 0, 0, 1114117, 0, 0, 1114118, 0, 0, 1114119, 0, 0, 1114120, 0, 0, 1114121, 0, 0, 1114122, 0, 0, 1114123, 0, 0, 1114124, 0, 0, 1114125, 0, 0, 1114126, 0, 0, 1114127, 0, 0, 1114128, 0, 0, 1114129, 0, 0, 1114130, 0, 0, 1114131, 0, 0, 1114132, 0, 0, 1114133, 0, 0, 1114134, 0, 0, 1114135, 0, 0, 1114136, 0, 0, 1114137, 0, 0, 1114138, 0, 0, 1114139, 0, 0, 1114140, 0, 0, 1114141, 0, 0, 1114142, 0, 0, 1114143, 0, 0, 1114182, 82, 0, 1114185, 82, 0, 1114188, 82, 0, 1114191, 82, 0, 1245169, 82, 0, 1245178, 82, 0, 1245181, 4, 0, 1245182, 18, 0, 1245183, 17, 0, 1179648, 17, 0, 1179649, 17, 0, 1179650, 17, 0, 1179651, 17, 0, 1179652, 17, 0, 1179653, 17, 0, 1179654, 17, 0, 1179655, 17, 0, 1179656, 17, 0, 1179657, 17, 0, 1179658, 17, 0, 1179659, 17, 0, 1179660, 17, 0, 1179661, 17, 0, 1179662, 17, 0, 1179663, 17, 0, 1179664, 17, 0, 1179665, 17, 0, 1179666, 17, 0, 1179667, 17, 0, 1179668, 17, 0, 1179669, 17, 0, 1179670, 17, 0, 1179671, 17, 0, 1179672, 17, 0, 1179673, 17, 0, 1179674, 17, 0, 1179675, 17, 0, 1179676, 17, 0, 1179677, 17, 0, 1179678, 17, 0, 1179679, 17, 0, 1310717, 4, 0, 1310718, 18, 0, 1310719, 18, 0, 1245184, 18, 0, 1245185, 18, 0, 1245186, 18, 0, 1245187, 18, 0, 1245188, 18, 0, 1245189, 18, 0, 1245190, 18, 0, 1245191, 18, 0, 1245192, 18, 0, 1245193, 18, 0, 1245194, 18, 0, 1245195, 18, 0, 1245196, 18, 0, 1245197, 18, 0, 1245198, 18, 0, 1245199, 18, 0, 1245200, 18, 0, 1245201, 18, 0, 1245202, 18, 0, 1245203, 18, 0, 1245204, 18, 0, 1245205, 18, 0, 1245206, 18, 0, 1245207, 18, 0, 1245208, 18, 0, 1245209, 18, 0, 1245210, 18, 0, 1245211, 18, 0, 1245212, 18, 0, 1245213, 18, 0, 1245214, 18, 0, 1245215, 18, 0, 1376253, 4, 0, 1376254, 4, 0, 1376255, 4, 0, 1310720, 4, 0, 1310721, 4, 0, 1310722, 4, 0, 1310723, 4, 0, 1310724, 4, 0, 1310725, 4, 0, 1310726, 4, 0, 1310727, 4, 0, 1310728, 4, 0, 1310729, 4, 0, 1310730, 4, 0, 1310731, 4, 0, 1310732, 4, 0, 1310733, 4, 0, 1310734, 4, 0, 1310735, 4, 0, 1310736, 4, 0, 1310737, 4, 0, 1310738, 4, 0, 1310739, 4, 0, 1310740, 4, 0, 1310741, 4, 0, 1310742, 4, 0, 1310743, 4, 0, 1310744, 4, 0, 1310745, 4, 0, 1310746, 4, 0, 1310747, 4, 0, 1310748, 4, 0, 1310749, 4, 0, 1310750, 4, 0, 1310751, 4, 0, 1310790, 82, 0, 1310793, 82, 0, 1310796, 82, 0, 1310799, 82, 0, 1310821, 83, 0, 1441777, 82, 0, 1441786, 82, 0, 1441789, 82, 0, 1376256, 82, 0, 1376259, 82, 0, 1376262, 82, 0, 1376265, 82, 0, 1376268, 82, 0, 1376271, 82, 0, 1376274, 82, 0, 1376277, 82, 0, 1376280, 82, 0, 1376283, 82, 0, 1376285, 82, 0, 1507398, 82, 0, 1507401, 82, 0, 1507404, 82, 0, 1507407, 82, 0, 1638385, 82, 0, 1572893, 82, 0, 1572965, 83, 0, 1704006, 82, 0, 1704009, 82, 0, 1704012, 82, 0, 1704015, 82, 0, 1834993, 82, 0, 1769501, 82, 0, 1835109, 83, 0, 1900614, 82, 0, 1900617, 82, 0, 1900620, 82, 0, 1900623, 82, 0, 2031601, 82, 0, 2031604, 82, 0, 2031607, 82, 0, 2031610, 82, 0, 2031613, 82, 0, 1966080, 82, 0, 1966086, 82, 0, 1966092, 82, 0, 1966109, 82, 0, 2097222, 82, 0, 2097225, 82, 0, 2097228, 82, 0, 2097231, 82, 0, 2162717, 82, 0, 2228300, 82, 0, 2293830, 82, 0, 2293833, 82, 0, 2293839, 82, 0, 2359325, 82, 0, 2424908, 82, 0, 2490438, 82, 0, 2490441, 82, 0, 2490447, 82, 0, 2555933, 82, 0, 2555977, 82, 0, 2621516, 82, 0, 2687046, 82, 0, 2687055, 82, 0, 2752541, 82, 0, 2752585, 82, 0, 2818124, 82, 0, 2883654, 82, 0, 2883663, 82, 0, 2949149, 82, 0, 2949152, 82, 0, 2949155, 82, 0, 2949158, 82, 0, 2949161, 82, 0, 2949164, 82, 0, 2949167, 82, 0, 2949170, 82, 0, 2949173, 82, 0, 2949176, 82, 0, 2949179, 82, 0, 2949182, 82, 0, 2949185, 82, 0, 2949188, 82, 0, 2949190, 82, 0, 2949193, 82, 0, 2949196, 82, 0, 2949199, 82, 0 )

[node name="Player" parent="." instance=ExtResource( 4 )]
editor/display_folded = true
position = Vector2( 121.171, 230.548 )
scale = Vector2( 0.5, 0.5 )
jump_speed = -600

[node name="Camera2D" type="Camera2D" parent="Player"]
position = Vector2( 6.37769, 57.3998 )
current = true

[node name="spikes" type="Sprite" parent="."]
editor/display_folded = true
position = Vector2( -139.51, 860 )
scale = Vector2( 0.402738, 0.433367 )
texture = ExtResource( 5 )
offset = Vector2( -78.6303, 162.573 )
script = ExtResource( 6 )
__meta__ = {
"_edit_group_": true
}

[node name="Area2D" type="Area2D" parent="spikes"]
position = Vector2( -86.3945, 205.81 )

[node name="CollisionShape2D" type="CollisionShape2D" parent="spikes/Area2D"]
position = Vector2( 8.12695, -3.12305 )
rotation = 1.5708
shape = SubResource( 1 )

[node name="spikes6" type="Sprite" parent="."]
editor/display_folded = true
position = Vector2( 30.7469, 860 )
scale = Vector2( 0.402738, 0.433367 )
texture = ExtResource( 5 )
offset = Vector2( -78.6303, 162.573 )
script = ExtResource( 6 )
__meta__ = {
"_edit_group_": true
}

[node name="Area2D" type="Area2D" parent="spikes6"]
position = Vector2( -86.3945, 205.81 )

[node name="CollisionShape2D" type="CollisionShape2D" parent="spikes6/Area2D"]
position = Vector2( 8.12695, -3.12305 )
rotation = 1.5708
shape = SubResource( 1 )

[node name="spikes3" type="Sprite" parent="."]
editor/display_folded = true
position = Vector2( 277.654, 388.506 )
scale = Vector2( 0.637697, 0.686195 )
texture = ExtResource( 5 )
offset = Vector2( -78.6303, 162.573 )
script = ExtResource( 6 )
__meta__ = {
"_edit_group_": true
}

[node name="Area2D" type="Area2D" parent="spikes3"]
position = Vector2( -86.3945, 205.81 )

[node name="CollisionShape2D" type="CollisionShape2D" parent="spikes3/Area2D"]
position = Vector2( 8.12695, -3.12305 )
rotation = 1.5708
shape = SubResource( 1 )

[node name="spikes10" type="Sprite" parent="."]
editor/display_folded = true
position = Vector2( 482.852, 391.035 )
scale = Vector2( 0.637697, 0.686195 )
texture = ExtResource( 5 )
offset = Vector2( -78.6303, 162.573 )
script = ExtResource( 6 )
__meta__ = {
"_edit_group_": true
}

[node name="Area2D" type="Area2D" parent="spikes10"]
position = Vector2( -86.3945, 205.81 )

[node name="CollisionShape2D" type="CollisionShape2D" parent="spikes10/Area2D"]
position = Vector2( 8.12695, -3.12305 )
rotation = 1.5708
shape = SubResource( 1 )

[node name="spikes4" type="Sprite" parent="."]
editor/display_folded = true
position = Vector2( 1029.06, 388.881 )
scale = Vector2( 0.637697, 0.686195 )
texture = ExtResource( 5 )
offset = Vector2( -78.6303, 162.573 )
script = ExtResource( 6 )
__meta__ = {
"_edit_group_": true
}

[node name="Area2D" type="Area2D" parent="spikes4"]
position = Vector2( -86.3945, 205.81 )

[node name="CollisionShape2D" type="CollisionShape2D" parent="spikes4/Area2D"]
position = Vector2( 8.12695, -3.12305 )
rotation = 1.5708
shape = SubResource( 1 )

[node name="spikes2" type="Sprite" parent="."]
editor/display_folded = true
position = Vector2( -113.536, 864.501 )
rotation = 3.14159
scale = Vector2( 0.402738, 0.433367 )
texture = ExtResource( 5 )
offset = Vector2( -78.6303, 162.573 )
script = ExtResource( 6 )
__meta__ = {
"_edit_group_": true
}

[node name="Area2D" type="Area2D" parent="spikes2"]
position = Vector2( -86.3945, 205.81 )

[node name="CollisionShape2D" type="CollisionShape2D" parent="spikes2/Area2D"]
position = Vector2( 8.12695, -3.12305 )
rotation = 1.5708
shape = SubResource( 1 )

[node name="spikes5" type="Sprite" parent="."]
editor/display_folded = true
position = Vector2( 50.5518, 864.501 )
rotation = 3.14159
scale = Vector2( 0.402738, 0.433367 )
texture = ExtResource( 5 )
offset = Vector2( -78.6303, 162.573 )
script = ExtResource( 6 )
__meta__ = {
"_edit_group_": true
}

[node name="Area2D" type="Area2D" parent="spikes5"]
position = Vector2( -86.3945, 205.81 )

[node name="CollisionShape2D" type="CollisionShape2D" parent="spikes5/Area2D"]
position = Vector2( 8.12695, -3.12305 )
rotation = 1.5708
shape = SubResource( 1 )

[node name="spikes7" type="Sprite" parent="."]
editor/display_folded = true
position = Vector2( 213.406, 863.267 )
rotation = 3.14159
scale = Vector2( 0.402738, 0.433367 )
texture = ExtResource( 5 )
offset = Vector2( -78.6303, 162.573 )
script = ExtResource( 6 )
__meta__ = {
"_edit_group_": true
}

[node name="Area2D" type="Area2D" parent="spikes7"]
position = Vector2( -86.3945, 205.81 )

[node name="CollisionShape2D" type="CollisionShape2D" parent="spikes7/Area2D"]
position = Vector2( 8.12695, -3.12305 )
rotation = 1.5708
shape = SubResource( 1 )

[node name="spikes8" type="Sprite" parent="."]
editor/display_folded = true
position = Vector2( 400.936, 864.501 )
rotation = 3.14159
scale = Vector2( 0.402738, 0.433367 )
texture = ExtResource( 5 )
offset = Vector2( -78.6303, 162.573 )
script = ExtResource( 6 )
__meta__ = {
"_edit_group_": true
}

[node name="Area2D" type="Area2D" parent="spikes8"]
position = Vector2( -86.3945, 205.81 )

[node name="CollisionShape2D" type="CollisionShape2D" parent="spikes8/Area2D"]
position = Vector2( 8.12695, -3.12305 )
rotation = 1.5708
shape = SubResource( 1 )

[node name="spikes9" type="Sprite" parent="."]
editor/display_folded = true
position = Vector2( 400.936, 864.501 )
rotation = 3.14159
scale = Vector2( 0.402738, 0.433367 )
texture = ExtResource( 5 )
offset = Vector2( -78.6303, 162.573 )
script = ExtResource( 6 )
__meta__ = {
"_edit_group_": true
}

[node name="Area2D" type="Area2D" parent="spikes9"]
position = Vector2( -86.3945, 205.81 )

[node name="CollisionShape2D" type="CollisionShape2D" parent="spikes9/Area2D"]
position = Vector2( 8.12695, -3.12305 )
rotation = 1.5708
shape = SubResource( 1 )

[node name="Moving" type="Node2D" parent="."]
editor/display_folded = true
position = Vector2( 1219.44, 612.467 )
script = ExtResource( 7 )
__meta__ = {
"_edit_group_": true
}
motion = Vector2( 50, 0 )

[node name="Platform" type="KinematicBody2D" parent="Moving"]

[node name="Sprite" type="Sprite" parent="Moving/Platform"]
texture = ExtResource( 8 )

[node name="CollisionShape2D" type="CollisionShape2D" parent="Moving/Platform"]
shape = SubResource( 2 )

[node name="Moving2" type="Node2D" parent="."]
editor/display_folded = true
position = Vector2( 1499.44, 552.116 )
script = ExtResource( 7 )
__meta__ = {
"_edit_group_": true
}
motion = Vector2( 75, 0 )

[node name="Platform" type="KinematicBody2D" parent="Moving2"]

[node name="Sprite" type="Sprite" parent="Moving2/Platform"]
texture = ExtResource( 8 )

[node name="CollisionShape2D" type="CollisionShape2D" parent="Moving2/Platform"]
shape = SubResource( 2 )

[node name="Moving3" type="Node2D" parent="."]
editor/display_folded = true
position = Vector2( 1776.64, 558.112 )
script = ExtResource( 7 )
__meta__ = {
"_edit_group_": true
}
motion = Vector2( 50, 0 )

[node name="Platform" type="KinematicBody2D" parent="Moving3"]

[node name="Sprite" type="Sprite" parent="Moving3/Platform"]
texture = ExtResource( 8 )

[node name="CollisionShape2D" type="CollisionShape2D" parent="Moving3/Platform"]
shape = SubResource( 2 )

[node name="Moving4" type="Node2D" parent="."]
editor/display_folded = true
position = Vector2( 2046.07, 461.678 )
script = ExtResource( 7 )
__meta__ = {
"_edit_group_": true
}
motion = Vector2( 50, 0 )

[node name="Platform" type="KinematicBody2D" parent="Moving4"]

[node name="Sprite" type="Sprite" parent="Moving4/Platform"]
texture = ExtResource( 8 )

[node name="CollisionShape2D" type="CollisionShape2D" parent="Moving4/Platform"]
shape = SubResource( 2 )

[node name="StaticBody2D" type="StaticBody2D" parent="."]
editor/display_folded = true
position = Vector2( -4.56641, 13.6992 )

[node name="CollisionShape2D" type="CollisionShape2D" parent="StaticBody2D"]
position = Vector2( 1652.06, 350.914 )
shape = SubResource( 3 )
__meta__ = {
"_edit_group_": true
}

[node name="StaticBody2D2" type="StaticBody2D" parent="."]
editor/display_folded = true
position = Vector2( 518.268, -97.6159 )
__meta__ = {
"_edit_group_": true
}

[node name="CollisionShape2D" type="CollisionShape2D" parent="StaticBody2D2"]
position = Vector2( 1652.06, 348.316 )
shape = SubResource( 3 )
__meta__ = {
"_edit_group_": true
}

[node name="death area" type="Area2D" parent="."]
editor/display_folded = true
__meta__ = {
"_edit_group_": true
}

[node name="CollisionShape2D" type="CollisionShape2D" parent="death area"]
position = Vector2( 1632.34, 1032.5 )
shape = SubResource( 4 )

[node name="trigstage2" type="Area2D" parent="."]
editor/display_folded = true
position = Vector2( 1604.88, 5.6194 )
script = ExtResource( 9 )
__meta__ = {
"_edit_group_": true
}

[node name="CollisionShape2D" type="CollisionShape2D" parent="trigstage2"]
position = Vector2( 1632.34, 1032.5 )
shape = SubResource( 4 )

[node name="Label" type="Label" parent="."]
margin_left = 1060.35
margin_top = 154.986
margin_right = 1437.35
margin_bottom = 301.986
custom_fonts/font = ExtResource( 10 )
custom_colors/font_color = Color( 0.945098, 1, 0, 1 )
custom_colors/font_outline_modulate = Color( 0, 0, 0, 1 )
text = "BEWARE OF THE
INVISIBLE !"
align = 1

[node name="Label2" type="Label" parent="."]
margin_left = 2748.25
margin_top = 8.25
margin_right = 3168.25
margin_bottom = 305.25
custom_fonts/font = ExtResource( 10 )
custom_colors/font_color = Color( 1, 1, 1, 1 )
text = "JUMP !
p.s : trust me."

[node name="CanvasLayer" type="CanvasLayer" parent="."]

[node name="Life Counter" parent="CanvasLayer" instance=ExtResource( 11 )]
margin_left = 13.2367
margin_top = 14.44
margin_right = 53.2367
margin_bottom = 54.44

[node name="audio" type="AudioStreamPlayer2D" parent="."]
stream = ExtResource( 12 )
volume_db = -5.049
[connection signal="body_entered" from="spikes/Area2D" to="spikes" method="_on_Area2D_body_entered"]
[connection signal="body_entered" from="spikes6/Area2D" to="spikes6" method="_on_Area2D_body_entered"]
[connection signal="body_entered" from="spikes3/Area2D" to="spikes3" method="_on_Area2D_body_entered"]
[connection signal="body_entered" from="spikes10/Area2D" to="spikes10" method="_on_Area2D_body_entered"]
[connection signal="body_entered" from="spikes4/Area2D" to="spikes4" method="_on_Area2D_body_entered"]
[connection signal="body_entered" from="spikes2/Area2D" to="spikes2" method="_on_Area2D_body_entered"]
[connection signal="body_entered" from="spikes5/Area2D" to="spikes5" method="_on_Area2D_body_entered"]
[connection signal="body_entered" from="spikes7/Area2D" to="spikes7" method="_on_Area2D_body_entered"]
[connection signal="body_entered" from="spikes8/Area2D" to="spikes8" method="_on_Area2D_body_entered"]
[connection signal="body_entered" from="spikes9/Area2D" to="spikes9" method="_on_Area2D_body_entered"]
[connection signal="body_entered" from="death area" to="." method="_on_death_area_body_entered"]
[connection signal="body_entered" from="trigstage2" to="trigstage2" method="_on_death_area2_body_entered"]
